{
  "development": {
    "user": "postgres",
    "host": "localhost",
    "database": "mgc_db_tower",
    "password": "",
    "port": 5432,
    "dialect": "postgres"
  },
  "production": {
    "user": "mgcadmin",
    "host": "mgc.crehwbt8cds3.us-east-2.rds.amazonaws.com",
    "database": "postgres",
    "password": "megiddoadmin",
    "port": 5432,
    "dialect": "postgres"
  }
}